{
  "id": "neHa2aqc6Uc",
  "created_at": "2021-04-20T13:40:02-04:00",
  "updated_at": "2021-05-07T21:19:30-04:00",
  "promoted_at": "2021-04-21T05:00:03-04:00",
  "width": 4000,
  "height": 6000,
  "color": "#8c7373",
  "blur_hash": "LQB:BNayNGj[~Vf6R*a|XQjtoLa|",
  "description": null,
  "alt_description": "black asphalt road near snow covered mountain during daytime",
  "urls": {
    "raw": "https://images.unsplash.com/photo-1618940297441-fd8c4093daf0?ixid=MnwyMjkyMjV8MHwxfHJhbmRvbXx8fHx8fHx8fDE2MjA0OTkzNjU&ixlib=rb-1.2.1",
    "full": "https://images.unsplash.com/photo-1618940297441-fd8c4093daf0?crop=entropy&cs=srgb&fm=jpg&ixid=MnwyMjkyMjV8MHwxfHJhbmRvbXx8fHx8fHx8fDE2MjA0OTkzNjU&ixlib=rb-1.2.1&q=85",
    "regular": "https://images.unsplash.com/photo-1618940297441-fd8c4093daf0?crop=entropy&cs=tinysrgb&fit=max&fm=jpg&ixid=MnwyMjkyMjV8MHwxfHJhbmRvbXx8fHx8fHx8fDE2MjA0OTkzNjU&ixlib=rb-1.2.1&q=80&w=1080",
    "small": "https://images.unsplash.com/photo-1618940297441-fd8c4093daf0?crop=entropy&cs=tinysrgb&fit=max&fm=jpg&ixid=MnwyMjkyMjV8MHwxfHJhbmRvbXx8fHx8fHx8fDE2MjA0OTkzNjU&ixlib=rb-1.2.1&q=80&w=400",
    "thumb": "https://images.unsplash.com/photo-1618940297441-fd8c4093daf0?crop=entropy&cs=tinysrgb&fit=max&fm=jpg&ixid=MnwyMjkyMjV8MHwxfHJhbmRvbXx8fHx8fHx8fDE2MjA0OTkzNjU&ixlib=rb-1.2.1&q=80&w=200"
  },
  "links": {
    "self": "https://api.unsplash.com/photos/neHa2aqc6Uc",
    "html": "https://unsplash.com/photos/neHa2aqc6Uc",
    "download": "https://unsplash.com/photos/neHa2aqc6Uc/download",
    "download_location": "https://api.unsplash.com/photos/neHa2aqc6Uc/download?ixid=MnwyMjkyMjV8MHwxfHJhbmRvbXx8fHx8fHx8fDE2MjA0OTkzNjU"
  },
  "categories": [],
  "likes": 197,
  "liked_by_user": false,
  "current_user_collections": [],
  "sponsorship": null,
  "user": {
    "id": "RXG0HsdbEe8",
    "updated_at": "2021-05-08T12:57:46-04:00",
    "username": "ttmuangkeo",
    "name": "Tim Muangkeo",
    "first_name": "Tim",
    "last_name": "Muangkeo",
    "twitter_username": null,
    "portfolio_url": "https://www.instagram.com/tim.muangkeo/",
    "bio": "Landscape Photographer",
    "location": "Seattle",
    "links": {
      "self": "https://api.unsplash.com/users/ttmuangkeo",
      "html": "https://unsplash.com/@ttmuangkeo",
      "photos": "https://api.unsplash.com/users/ttmuangkeo/photos",
      "likes": "https://api.unsplash.com/users/ttmuangkeo/likes",
      "portfolio": "https://api.unsplash.com/users/ttmuangkeo/portfolio",
      "following": "https://api.unsplash.com/users/ttmuangkeo/following",
      "followers": "https://api.unsplash.com/users/ttmuangkeo/followers"
    },
    "profile_image": {
      "small": "https://images.unsplash.com/profile-1610434374821-2f2663edc044image?ixlib=rb-1.2.1&q=80&fm=jpg&crop=faces&cs=tinysrgb&fit=crop&h=32&w=32",
      "medium": "https://images.unsplash.com/profile-1610434374821-2f2663edc044image?ixlib=rb-1.2.1&q=80&fm=jpg&crop=faces&cs=tinysrgb&fit=crop&h=64&w=64",
      "large": "https://images.unsplash.com/profile-1610434374821-2f2663edc044image?ixlib=rb-1.2.1&q=80&fm=jpg&crop=faces&cs=tinysrgb&fit=crop&h=128&w=128"
    },
    "instagram_username": "tim.muangkeo",
    "total_collections": 0,
    "total_likes": 0,
    "total_photos": 48,
    "accepted_tos": true,
    "for_hire": true
  },
  "exif": {
    "make": null,
    "model": null,
    "exposure_time": null,
    "aperture": null,
    "focal_length": null,
    "iso": null
  },
  "location": {
    "title": "Alaska, USA",
    "name": "Alaska, USA",
    "city": null,
    "country": "United States",
    "position": {
      "latitude": 64.200841,
      "longitude": -149.493673
    }
  },
  "views": 10711164,
  "downloads": 18113
}
